{
  "staging": {
    "awscloudformation": {
      "AuthRoleName": "amplify-fluttersms-staging-01f6f-authRole",
      "UnauthRoleArn": "arn:aws:iam::556059364996:role/amplify-fluttersms-staging-01f6f-unauthRole",
      "AuthRoleArn": "arn:aws:iam::556059364996:role/amplify-fluttersms-staging-01f6f-authRole",
      "Region": "ap-southeast-1",
      "DeploymentBucketName": "amplify-fluttersms-staging-01f6f-deployment",
      "UnauthRoleName": "amplify-fluttersms-staging-01f6f-unauthRole",
      "StackName": "amplify-fluttersms-staging-01f6f",
      "StackId": "arn:aws:cloudformation:ap-southeast-1:556059364996:stack/amplify-fluttersms-staging-01f6f/1968df30-1405-11ef-8cc5-066a5e7e700d",
      "AmplifyAppId": "d2q9ays8o5vtvo"
    },
    "categories": {
      "auth": {
        "fluttersms3ce822d3": {}
      }
    }
  }
}